(kicad_symbol_lib
	(version 20231120)
	(generator "kicad_symbol_editor")
	(generator_version "8.0")
	(symbol "AD831AP"
		(exclude_from_sim no)
		(in_bom yes)
		(on_board yes)
		(property "Reference" "U"
			(at -10.16 13.97 0)
			(effects
				(font
					(size 1.27 1.27)
				)
			)
		)
		(property "Value" "AD831AP"
			(at 10.16 13.97 0)
			(effects
				(font
					(size 1.27 1.27)
				)
			)
		)
		(property "Footprint" "Package_LCC:PLCC-20"
			(at 0 -26.67 0)
			(effects
				(font
					(size 1.27 1.27)
				)
				(hide yes)
			)
		)
		(property "Datasheet" "https://www.analog.com/media/en/technical-documentation/data-sheets/AD831.pdf"
			(at -10.16 13.97 0)
			(effects
				(font
					(size 1.27 1.27)
				)
				(hide yes)
			)
		)
		(property "Description" "Doubly Balanced monolithic Mixer, 500 MHz BW, +24 dBm, IP3, LNA and LO driver, PLCC-20"
			(at 0 0 0)
			(effects
				(font
					(size 1.27 1.27)
				)
				(hide yes)
			)
		)
		(property "ki_keywords" "mixer rf"
			(at 0 0 0)
			(effects
				(font
					(size 1.27 1.27)
				)
				(hide yes)
			)
		)
		(property "ki_fp_filters" "PLCC*"
			(at 0 0 0)
			(effects
				(font
					(size 1.27 1.27)
				)
				(hide yes)
			)
		)
		(symbol "AD831AP_0_1"
			(rectangle
				(start 10.16 12.7)
				(end -10.16 -12.7)
				(stroke
					(width 0.254)
					(type default)
				)
				(fill
					(type background)
				)
			)
		)
		(symbol "AD831AP_1_1"
			(pin power_in line
				(at -2.54 15.24 270)
				(length 2.54)
				(name "VP"
					(effects
						(font
							(size 1.27 1.27)
						)
					)
				)
				(number "1"
					(effects
						(font
							(size 1.27 1.27)
						)
					)
				)
			)
			(pin input line
				(at -12.7 0 0)
				(length 2.54)
				(name "LON"
					(effects
						(font
							(size 1.27 1.27)
						)
					)
				)
				(number "10"
					(effects
						(font
							(size 1.27 1.27)
						)
					)
				)
			)
			(pin input line
				(at -12.7 2.54 0)
				(length 2.54)
				(name "LOP"
					(effects
						(font
							(size 1.27 1.27)
						)
					)
				)
				(number "11"
					(effects
						(font
							(size 1.27 1.27)
						)
					)
				)
			)
			(pin power_in line
				(at 2.54 15.24 270)
				(length 2.54)
				(name "VP"
					(effects
						(font
							(size 1.27 1.27)
						)
					)
				)
				(number "12"
					(effects
						(font
							(size 1.27 1.27)
						)
					)
				)
			)
			(pin passive line
				(at -5.08 -15.24 90)
				(length 2.54) hide
				(name "GND"
					(effects
						(font
							(size 1.27 1.27)
						)
					)
				)
				(number "13"
					(effects
						(font
							(size 1.27 1.27)
						)
					)
				)
			)
			(pin passive line
				(at -12.7 -5.08 0)
				(length 2.54)
				(name "BIAS"
					(effects
						(font
							(size 1.27 1.27)
						)
					)
				)
				(number "14"
					(effects
						(font
							(size 1.27 1.27)
						)
					)
				)
			)
			(pin power_in line
				(at 2.54 -15.24 90)
				(length 2.54)
				(name "VN"
					(effects
						(font
							(size 1.27 1.27)
						)
					)
				)
				(number "15"
					(effects
						(font
							(size 1.27 1.27)
						)
					)
				)
			)
			(pin output line
				(at 12.7 -5.08 180)
				(length 2.54)
				(name "OUT"
					(effects
						(font
							(size 1.27 1.27)
						)
					)
				)
				(number "16"
					(effects
						(font
							(size 1.27 1.27)
						)
					)
				)
			)
			(pin passive line
				(at 12.7 -7.62 180)
				(length 2.54)
				(name "VFB"
					(effects
						(font
							(size 1.27 1.27)
						)
					)
				)
				(number "17"
					(effects
						(font
							(size 1.27 1.27)
						)
					)
				)
			)
			(pin passive line
				(at 12.7 -10.16 180)
				(length 2.54)
				(name "COM"
					(effects
						(font
							(size 1.27 1.27)
						)
					)
				)
				(number "18"
					(effects
						(font
							(size 1.27 1.27)
						)
					)
				)
			)
			(pin input line
				(at 12.7 10.16 180)
				(length 2.54)
				(name "AP"
					(effects
						(font
							(size 1.27 1.27)
						)
					)
				)
				(number "19"
					(effects
						(font
							(size 1.27 1.27)
						)
					)
				)
			)
			(pin open_collector line
				(at 12.7 5.08 180)
				(length 2.54)
				(name "IFN"
					(effects
						(font
							(size 1.27 1.27)
						)
					)
				)
				(number "2"
					(effects
						(font
							(size 1.27 1.27)
						)
					)
				)
			)
			(pin open_collector line
				(at 12.7 7.62 180)
				(length 2.54)
				(name "IFP"
					(effects
						(font
							(size 1.27 1.27)
						)
					)
				)
				(number "20"
					(effects
						(font
							(size 1.27 1.27)
						)
					)
				)
			)
			(pin input line
				(at 12.7 2.54 180)
				(length 2.54)
				(name "AN"
					(effects
						(font
							(size 1.27 1.27)
						)
					)
				)
				(number "3"
					(effects
						(font
							(size 1.27 1.27)
						)
					)
				)
			)
			(pin power_in line
				(at -5.08 -15.24 90)
				(length 2.54)
				(name "GND"
					(effects
						(font
							(size 1.27 1.27)
						)
					)
				)
				(number "4"
					(effects
						(font
							(size 1.27 1.27)
						)
					)
				)
			)
			(pin power_in line
				(at -2.54 -15.24 90)
				(length 2.54)
				(name "VN"
					(effects
						(font
							(size 1.27 1.27)
						)
					)
				)
				(number "5"
					(effects
						(font
							(size 1.27 1.27)
						)
					)
				)
			)
			(pin input line
				(at -12.7 10.16 0)
				(length 2.54)
				(name "RFP"
					(effects
						(font
							(size 1.27 1.27)
						)
					)
				)
				(number "6"
					(effects
						(font
							(size 1.27 1.27)
						)
					)
				)
			)
			(pin input line
				(at -12.7 7.62 0)
				(length 2.54)
				(name "RFN"
					(effects
						(font
							(size 1.27 1.27)
						)
					)
				)
				(number "7"
					(effects
						(font
							(size 1.27 1.27)
						)
					)
				)
			)
			(pin power_in line
				(at 0 -15.24 90)
				(length 2.54)
				(name "VN"
					(effects
						(font
							(size 1.27 1.27)
						)
					)
				)
				(number "8"
					(effects
						(font
							(size 1.27 1.27)
						)
					)
				)
			)
			(pin power_in line
				(at 0 15.24 270)
				(length 2.54)
				(name "VP"
					(effects
						(font
							(size 1.27 1.27)
						)
					)
				)
				(number "9"
					(effects
						(font
							(size 1.27 1.27)
						)
					)
				)
			)
		)
	)
	(symbol "ADE-6"
		(exclude_from_sim no)
		(in_bom yes)
		(on_board yes)
		(property "Reference" "U"
			(at -6.35 7.62 0)
			(effects
				(font
					(size 1.27 1.27)
				)
			)
		)
		(property "Value" "ADE-6"
			(at 6.35 7.62 0)
			(effects
				(font
					(size 1.27 1.27)
				)
			)
		)
		(property "Footprint" "RF_Mini-Circuits:Mini-Circuits_CD542_LandPatternPL-052"
			(at 1.905 -9.525 0)
			(effects
				(font
					(size 1.27 1.27)
				)
				(hide yes)
			)
		)
		(property "Datasheet" "https://www.minicircuits.com/pdfs/ADE-6.pdf"
			(at 4.445 -6.985 0)
			(effects
				(font
					(size 1.27 1.27)
				)
				(hide yes)
			)
		)
		(property "Description" "Mixer, +7 dBm LO, 0.05 to 250 MHz, CD542"
			(at 0 0 0)
			(effects
				(font
					(size 1.27 1.27)
				)
				(hide yes)
			)
		)
		(property "ki_keywords" "mixer rf"
			(at 0 0 0)
			(effects
				(font
					(size 1.27 1.27)
				)
				(hide yes)
			)
		)
		(property "ki_fp_filters" "Mini?Circuits*CD542*"
			(at 0 0 0)
			(effects
				(font
					(size 1.27 1.27)
				)
				(hide yes)
			)
		)
		(symbol "ADE-6_0_1"
			(rectangle
				(start -6.35 6.35)
				(end 6.35 -6.35)
				(stroke
					(width 0.254)
					(type default)
				)
				(fill
					(type background)
				)
			)
			(polyline
				(pts
					(xy -3.175 -3.81) (xy 3.175 3.81)
				)
				(stroke
					(width 0)
					(type default)
				)
				(fill
					(type none)
				)
			)
			(polyline
				(pts
					(xy 3.81 -3.175) (xy -3.175 3.81)
				)
				(stroke
					(width 0)
					(type default)
				)
				(fill
					(type none)
				)
			)
			(circle
				(center 0 0)
				(radius 5.08)
				(stroke
					(width 0)
					(type default)
				)
				(fill
					(type none)
				)
			)
		)
		(symbol "ADE-6_1_1"
			(pin power_in line
				(at -5.08 -10.16 90)
				(length 3.81)
				(name "GND"
					(effects
						(font
							(size 1.27 1.27)
						)
					)
				)
				(number "1"
					(effects
						(font
							(size 1.27 1.27)
						)
					)
				)
			)
			(pin output line
				(at 10.16 0 180)
				(length 5.08)
				(name "IF"
					(effects
						(font
							(size 1.27 1.27)
						)
					)
				)
				(number "2"
					(effects
						(font
							(size 1.27 1.27)
						)
					)
				)
			)
			(pin input line
				(at -10.16 0 0)
				(length 5.08)
				(name "RF"
					(effects
						(font
							(size 1.27 1.27)
						)
					)
				)
				(number "3"
					(effects
						(font
							(size 1.27 1.27)
						)
					)
				)
			)
			(pin passive line
				(at -5.08 -10.16 90)
				(length 3.81) hide
				(name "GND"
					(effects
						(font
							(size 1.27 1.27)
						)
					)
				)
				(number "4"
					(effects
						(font
							(size 1.27 1.27)
						)
					)
				)
			)
			(pin passive line
				(at -5.08 -10.16 90)
				(length 3.81) hide
				(name "GND"
					(effects
						(font
							(size 1.27 1.27)
						)
					)
				)
				(number "5"
					(effects
						(font
							(size 1.27 1.27)
						)
					)
				)
			)
			(pin input line
				(at 0 -10.16 90)
				(length 5.08)
				(name "LO"
					(effects
						(font
							(size 1.27 1.27)
						)
					)
				)
				(number "6"
					(effects
						(font
							(size 1.27 1.27)
						)
					)
				)
			)
		)
	)
	(symbol "ADL5801"
		(exclude_from_sim no)
		(in_bom yes)
		(on_board yes)
		(property "Reference" "U"
			(at -8.89 13.97 0)
			(effects
				(font
					(size 1.27 1.27)
				)
			)
		)
		(property "Value" "ADL5801"
			(at -8.89 -13.97 0)
			(effects
				(font
					(size 1.27 1.27)
				)
			)
		)
		(property "Footprint" "Package_CSP:LFCSP-VQ-24-1EP_4x4mm_P0.5mm_EP2.642x2.642mm"
			(at 0 -17.78 0)
			(effects
				(font
					(size 1.27 1.27)
				)
				(hide yes)
			)
		)
		(property "Datasheet" "https://www.analog.com/media/en/technical-documentation/data-sheets/ADL5801.pdf"
			(at 0 -1.27 0)
			(effects
				(font
					(size 1.27 1.27)
				)
				(hide yes)
			)
		)
		(property "Description" "10 MHz to 6 GHz Active Mixer, LFCSP-24"
			(at 0 0 0)
			(effects
				(font
					(size 1.27 1.27)
				)
				(hide yes)
			)
		)
		(property "ki_keywords" "mixer active"
			(at 0 0 0)
			(effects
				(font
					(size 1.27 1.27)
				)
				(hide yes)
			)
		)
		(property "ki_fp_filters" "LFCSP*1EP*4x4mm*P0.5mm*"
			(at 0 0 0)
			(effects
				(font
					(size 1.27 1.27)
				)
				(hide yes)
			)
		)
		(symbol "ADL5801_0_1"
			(rectangle
				(start -10.16 12.7)
				(end 10.16 -12.7)
				(stroke
					(width 0.254)
					(type default)
				)
				(fill
					(type background)
				)
			)
			(polyline
				(pts
					(xy -4.445 3.81) (xy 0 3.81) (xy 0 0.635)
				)
				(stroke
					(width 0)
					(type default)
				)
				(fill
					(type none)
				)
			)
		)
		(symbol "ADL5801_1_1"
			(circle
				(center 0 -1.27)
				(radius 1.778)
				(stroke
					(width 0)
					(type default)
				)
				(fill
					(type none)
				)
			)
			(polyline
				(pts
					(xy -1.778 -1.27) (xy -5.08 -1.27)
				)
				(stroke
					(width 0)
					(type default)
				)
				(fill
					(type none)
				)
			)
			(polyline
				(pts
					(xy -1.27 -2.54) (xy 1.27 0)
				)
				(stroke
					(width 0)
					(type default)
				)
				(fill
					(type none)
				)
			)
			(polyline
				(pts
					(xy -1.27 0) (xy 1.27 -2.54)
				)
				(stroke
					(width 0)
					(type default)
				)
				(fill
					(type none)
				)
			)
			(polyline
				(pts
					(xy 1.778 -1.27) (xy 5.08 -1.27)
				)
				(stroke
					(width 0)
					(type default)
				)
				(fill
					(type none)
				)
			)
			(pin power_in line
				(at 0 -15.24 90)
				(length 2.54)
				(name "GND"
					(effects
						(font
							(size 1.27 1.27)
						)
					)
				)
				(number "1"
					(effects
						(font
							(size 1.27 1.27)
						)
					)
				)
			)
			(pin input line
				(at 12.7 10.16 180)
				(length 2.54)
				(name "VSET"
					(effects
						(font
							(size 1.27 1.27)
						)
					)
				)
				(number "10"
					(effects
						(font
							(size 1.27 1.27)
						)
					)
				)
			)
			(pin output line
				(at 12.7 5.08 180)
				(length 2.54)
				(name "DETO"
					(effects
						(font
							(size 1.27 1.27)
						)
					)
				)
				(number "11"
					(effects
						(font
							(size 1.27 1.27)
						)
					)
				)
			)
			(pin passive line
				(at 0 -15.24 90)
				(length 2.54) hide
				(name "GND"
					(effects
						(font
							(size 1.27 1.27)
						)
					)
				)
				(number "12"
					(effects
						(font
							(size 1.27 1.27)
						)
					)
				)
			)
			(pin power_in line
				(at 0 15.24 270)
				(length 2.54)
				(name "VPDT"
					(effects
						(font
							(size 1.27 1.27)
						)
					)
				)
				(number "13"
					(effects
						(font
							(size 1.27 1.27)
						)
					)
				)
			)
			(pin passive line
				(at 0 -15.24 90)
				(length 2.54) hide
				(name "GND"
					(effects
						(font
							(size 1.27 1.27)
						)
					)
				)
				(number "14"
					(effects
						(font
							(size 1.27 1.27)
						)
					)
				)
			)
			(pin input line
				(at -12.7 -2.54 0)
				(length 2.54)
				(name "RFIN"
					(effects
						(font
							(size 1.27 1.27)
						)
					)
				)
				(number "15"
					(effects
						(font
							(size 1.27 1.27)
						)
					)
				)
			)
			(pin input line
				(at -12.7 0 0)
				(length 2.54)
				(name "RFIP"
					(effects
						(font
							(size 1.27 1.27)
						)
					)
				)
				(number "16"
					(effects
						(font
							(size 1.27 1.27)
						)
					)
				)
			)
			(pin passive line
				(at 0 -15.24 90)
				(length 2.54) hide
				(name "GND"
					(effects
						(font
							(size 1.27 1.27)
						)
					)
				)
				(number "17"
					(effects
						(font
							(size 1.27 1.27)
						)
					)
				)
			)
			(pin power_in line
				(at 2.54 15.24 270)
				(length 2.54)
				(name "VPRF"
					(effects
						(font
							(size 1.27 1.27)
						)
					)
				)
				(number "18"
					(effects
						(font
							(size 1.27 1.27)
						)
					)
				)
			)
			(pin passive line
				(at 0 -15.24 90)
				(length 2.54) hide
				(name "GND"
					(effects
						(font
							(size 1.27 1.27)
						)
					)
				)
				(number "19"
					(effects
						(font
							(size 1.27 1.27)
						)
					)
				)
			)
			(pin passive line
				(at 0 -15.24 90)
				(length 2.54) hide
				(name "GND"
					(effects
						(font
							(size 1.27 1.27)
						)
					)
				)
				(number "2"
					(effects
						(font
							(size 1.27 1.27)
						)
					)
				)
			)
			(pin output line
				(at 12.7 0 180)
				(length 2.54)
				(name "IFOP"
					(effects
						(font
							(size 1.27 1.27)
						)
					)
				)
				(number "20"
					(effects
						(font
							(size 1.27 1.27)
						)
					)
				)
			)
			(pin output line
				(at 12.7 -2.54 180)
				(length 2.54)
				(name "IFON"
					(effects
						(font
							(size 1.27 1.27)
						)
					)
				)
				(number "21"
					(effects
						(font
							(size 1.27 1.27)
						)
					)
				)
			)
			(pin no_connect line
				(at 10.16 -7.62 180)
				(length 2.54) hide
				(name "NC"
					(effects
						(font
							(size 1.27 1.27)
						)
					)
				)
				(number "22"
					(effects
						(font
							(size 1.27 1.27)
						)
					)
				)
			)
			(pin passive line
				(at 0 -15.24 90)
				(length 2.54) hide
				(name "GND"
					(effects
						(font
							(size 1.27 1.27)
						)
					)
				)
				(number "23"
					(effects
						(font
							(size 1.27 1.27)
						)
					)
				)
			)
			(pin passive line
				(at -2.54 15.24 270)
				(length 2.54) hide
				(name "VPLO"
					(effects
						(font
							(size 1.27 1.27)
						)
					)
				)
				(number "24"
					(effects
						(font
							(size 1.27 1.27)
						)
					)
				)
			)
			(pin passive line
				(at 0 -15.24 90)
				(length 2.54) hide
				(name "GND"
					(effects
						(font
							(size 1.27 1.27)
						)
					)
				)
				(number "25"
					(effects
						(font
							(size 1.27 1.27)
						)
					)
				)
			)
			(pin input line
				(at -12.7 5.08 0)
				(length 2.54)
				(name "LOIP"
					(effects
						(font
							(size 1.27 1.27)
						)
					)
				)
				(number "3"
					(effects
						(font
							(size 1.27 1.27)
						)
					)
				)
			)
			(pin input line
				(at -12.7 2.54 0)
				(length 2.54)
				(name "LOIN"
					(effects
						(font
							(size 1.27 1.27)
						)
					)
				)
				(number "4"
					(effects
						(font
							(size 1.27 1.27)
						)
					)
				)
			)
			(pin passive line
				(at 0 -15.24 90)
				(length 2.54) hide
				(name "GND"
					(effects
						(font
							(size 1.27 1.27)
						)
					)
				)
				(number "5"
					(effects
						(font
							(size 1.27 1.27)
						)
					)
				)
			)
			(pin passive line
				(at 0 -15.24 90)
				(length 2.54) hide
				(name "GND"
					(effects
						(font
							(size 1.27 1.27)
						)
					)
				)
				(number "6"
					(effects
						(font
							(size 1.27 1.27)
						)
					)
				)
			)
			(pin power_in line
				(at -2.54 15.24 270)
				(length 2.54)
				(name "VPLO"
					(effects
						(font
							(size 1.27 1.27)
						)
					)
				)
				(number "7"
					(effects
						(font
							(size 1.27 1.27)
						)
					)
				)
			)
			(pin passive line
				(at 0 -15.24 90)
				(length 2.54) hide
				(name "GND"
					(effects
						(font
							(size 1.27 1.27)
						)
					)
				)
				(number "8"
					(effects
						(font
							(size 1.27 1.27)
						)
					)
				)
			)
			(pin input line
				(at -12.7 -7.62 0)
				(length 2.54)
				(name "~{ENBL}"
					(effects
						(font
							(size 1.27 1.27)
						)
					)
				)
				(number "9"
					(effects
						(font
							(size 1.27 1.27)
						)
					)
				)
			)
		)
	)
	(symbol "ADL5802"
		(exclude_from_sim no)
		(in_bom yes)
		(on_board yes)
		(property "Reference" "U"
			(at -8.89 16.51 0)
			(effects
				(font
					(size 1.27 1.27)
				)
			)
		)
		(property "Value" "ADL5802"
			(at 6.35 16.51 0)
			(effects
				(font
					(size 1.27 1.27)
				)
			)
		)
		(property "Footprint" "Package_CSP:LFCSP-24-1EP_4x4mm_P0.5mm_EP2.5x2.5mm"
			(at 0 -15.24 0)
			(effects
				(font
					(size 1.27 1.27)
				)
				(hide yes)
			)
		)
		(property "Datasheet" "https://www.analog.com/media/en/technical-documentation/data-sheets/ADL5802.pdf"
			(at 0 0.254 0)
			(effects
				(font
					(size 1.27 1.27)
				)
				(hide yes)
			)
		)
		(property "Description" "100 MHz to 6 GHz Dual Channel Active Mixer, LFCSP-24"
			(at 0 0 0)
			(effects
				(font
					(size 1.27 1.27)
				)
				(hide yes)
			)
		)
		(property "ki_keywords" "mixer rf"
			(at 0 0 0)
			(effects
				(font
					(size 1.27 1.27)
				)
				(hide yes)
			)
		)
		(property "ki_fp_filters" "LFCSP*1EP*4x4mm*P0.5mm*"
			(at 0 0 0)
			(effects
				(font
					(size 1.27 1.27)
				)
				(hide yes)
			)
		)
		(symbol "ADL5802_0_1"
			(rectangle
				(start -10.16 15.24)
				(end 10.16 -12.7)
				(stroke
					(width 0.254)
					(type default)
				)
				(fill
					(type background)
				)
			)
			(polyline
				(pts
					(xy -1.778 -3.81) (xy -4.064 -3.81)
				)
				(stroke
					(width 0)
					(type default)
				)
				(fill
					(type none)
				)
			)
			(polyline
				(pts
					(xy 0 4.572) (xy 0 -2.032)
				)
				(stroke
					(width 0)
					(type default)
				)
				(fill
					(type none)
				)
			)
			(polyline
				(pts
					(xy -1.778 6.35) (xy -2.54 6.35) (xy -2.54 11.43) (xy -4.064 11.43)
				)
				(stroke
					(width 0)
					(type default)
				)
				(fill
					(type none)
				)
			)
			(polyline
				(pts
					(xy 0 1.27) (xy -2.032 1.27) (xy -2.032 4.064) (xy -3.048 4.064) (xy -4.064 4.064)
				)
				(stroke
					(width 0)
					(type default)
				)
				(fill
					(type none)
				)
			)
			(circle
				(center 0 1.27)
				(radius 0.254)
				(stroke
					(width 0)
					(type default)
				)
				(fill
					(type outline)
				)
			)
		)
		(symbol "ADL5802_1_1"
			(circle
				(center 0 -3.81)
				(radius 1.778)
				(stroke
					(width 0)
					(type default)
				)
				(fill
					(type none)
				)
			)
			(polyline
				(pts
					(xy -1.27 -5.08) (xy 1.27 -2.54)
				)
				(stroke
					(width 0)
					(type default)
				)
				(fill
					(type none)
				)
			)
			(polyline
				(pts
					(xy -1.27 -2.54) (xy 1.27 -5.08)
				)
				(stroke
					(width 0)
					(type default)
				)
				(fill
					(type none)
				)
			)
			(polyline
				(pts
					(xy -1.27 5.08) (xy 1.27 7.62)
				)
				(stroke
					(width 0)
					(type default)
				)
				(fill
					(type none)
				)
			)
			(polyline
				(pts
					(xy -1.27 7.62) (xy 1.27 5.08)
				)
				(stroke
					(width 0)
					(type default)
				)
				(fill
					(type none)
				)
			)
			(circle
				(center 0 6.35)
				(radius 1.778)
				(stroke
					(width 0)
					(type default)
				)
				(fill
					(type none)
				)
			)
			(rectangle
				(start 3.81 -3.81)
				(end 1.778 -3.81)
				(stroke
					(width 0)
					(type default)
				)
				(fill
					(type none)
				)
			)
			(rectangle
				(start 3.81 6.35)
				(end 1.778 6.35)
				(stroke
					(width 0)
					(type default)
				)
				(fill
					(type none)
				)
			)
			(pin power_in line
				(at 0 -15.24 90)
				(length 2.54)
				(name "GND"
					(effects
						(font
							(size 1.27 1.27)
						)
					)
				)
				(number "1"
					(effects
						(font
							(size 1.27 1.27)
						)
					)
				)
			)
			(pin input line
				(at -12.7 2.54 0)
				(length 2.54)
				(name "LOIN"
					(effects
						(font
							(size 1.27 1.27)
						)
					)
				)
				(number "10"
					(effects
						(font
							(size 1.27 1.27)
						)
					)
				)
			)
			(pin passive line
				(at 0 -15.24 90)
				(length 2.54) hide
				(name "GND"
					(effects
						(font
							(size 1.27 1.27)
						)
					)
				)
				(number "11"
					(effects
						(font
							(size 1.27 1.27)
						)
					)
				)
			)
			(pin input line
				(at 12.7 12.7 180)
				(length 2.54)
				(name "VSET"
					(effects
						(font
							(size 1.27 1.27)
						)
					)
				)
				(number "12"
					(effects
						(font
							(size 1.27 1.27)
						)
					)
				)
			)
			(pin passive line
				(at 0 17.78 270)
				(length 2.54) hide
				(name "VPOS"
					(effects
						(font
							(size 1.27 1.27)
						)
					)
				)
				(number "13"
					(effects
						(font
							(size 1.27 1.27)
						)
					)
				)
			)
			(pin passive line
				(at 0 -15.24 90)
				(length 2.54) hide
				(name "GND"
					(effects
						(font
							(size 1.27 1.27)
						)
					)
				)
				(number "14"
					(effects
						(font
							(size 1.27 1.27)
						)
					)
				)
			)
			(pin output line
				(at 12.7 -2.54 180)
				(length 2.54)
				(name "OP2-"
					(effects
						(font
							(size 1.27 1.27)
						)
					)
				)
				(number "15"
					(effects
						(font
							(size 1.27 1.27)
						)
					)
				)
			)
			(pin output line
				(at 12.7 -5.08 180)
				(length 2.54)
				(name "OP2+"
					(effects
						(font
							(size 1.27 1.27)
						)
					)
				)
				(number "16"
					(effects
						(font
							(size 1.27 1.27)
						)
					)
				)
			)
			(pin passive line
				(at 0 -15.24 90)
				(length 2.54) hide
				(name "GND"
					(effects
						(font
							(size 1.27 1.27)
						)
					)
				)
				(number "17"
					(effects
						(font
							(size 1.27 1.27)
						)
					)
				)
			)
			(pin passive line
				(at 0 -15.24 90)
				(length 2.54) hide
				(name "GND"
					(effects
						(font
							(size 1.27 1.27)
						)
					)
				)
				(number "18"
					(effects
						(font
							(size 1.27 1.27)
						)
					)
				)
			)
			(pin input line
				(at -12.7 -2.54 0)
				(length 2.54)
				(name "RF2-"
					(effects
						(font
							(size 1.27 1.27)
						)
					)
				)
				(number "19"
					(effects
						(font
							(size 1.27 1.27)
						)
					)
				)
			)
			(pin passive line
				(at 0 -15.24 90)
				(length 2.54) hide
				(name "GND"
					(effects
						(font
							(size 1.27 1.27)
						)
					)
				)
				(number "2"
					(effects
						(font
							(size 1.27 1.27)
						)
					)
				)
			)
			(pin input line
				(at -12.7 -5.08 0)
				(length 2.54)
				(name "RF2+"
					(effects
						(font
							(size 1.27 1.27)
						)
					)
				)
				(number "20"
					(effects
						(font
							(size 1.27 1.27)
						)
					)
				)
			)
			(pin passive line
				(at 0 -15.24 90)
				(length 2.54) hide
				(name "GND"
					(effects
						(font
							(size 1.27 1.27)
						)
					)
				)
				(number "21"
					(effects
						(font
							(size 1.27 1.27)
						)
					)
				)
			)
			(pin input line
				(at -12.7 12.7 0)
				(length 2.54)
				(name "RF1-"
					(effects
						(font
							(size 1.27 1.27)
						)
					)
				)
				(number "22"
					(effects
						(font
							(size 1.27 1.27)
						)
					)
				)
			)
			(pin input line
				(at -12.7 10.16 0)
				(length 2.54)
				(name "RF1+"
					(effects
						(font
							(size 1.27 1.27)
						)
					)
				)
				(number "23"
					(effects
						(font
							(size 1.27 1.27)
						)
					)
				)
			)
			(pin passive line
				(at 0 17.78 270)
				(length 2.54) hide
				(name "VPOS"
					(effects
						(font
							(size 1.27 1.27)
						)
					)
				)
				(number "24"
					(effects
						(font
							(size 1.27 1.27)
						)
					)
				)
			)
			(pin passive line
				(at 0 -15.24 90)
				(length 2.54) hide
				(name "GND"
					(effects
						(font
							(size 1.27 1.27)
						)
					)
				)
				(number "25"
					(effects
						(font
							(size 1.27 1.27)
						)
					)
				)
			)
			(pin output line
				(at 12.7 7.62 180)
				(length 2.54)
				(name "OP1+"
					(effects
						(font
							(size 1.27 1.27)
						)
					)
				)
				(number "3"
					(effects
						(font
							(size 1.27 1.27)
						)
					)
				)
			)
			(pin output line
				(at 12.7 5.08 180)
				(length 2.54)
				(name "OP1-"
					(effects
						(font
							(size 1.27 1.27)
						)
					)
				)
				(number "4"
					(effects
						(font
							(size 1.27 1.27)
						)
					)
				)
			)
			(pin passive line
				(at 0 -15.24 90)
				(length 2.54) hide
				(name "GND"
					(effects
						(font
							(size 1.27 1.27)
						)
					)
				)
				(number "5"
					(effects
						(font
							(size 1.27 1.27)
						)
					)
				)
			)
			(pin power_in line
				(at 0 17.78 270)
				(length 2.54)
				(name "VPOS"
					(effects
						(font
							(size 1.27 1.27)
						)
					)
				)
				(number "6"
					(effects
						(font
							(size 1.27 1.27)
						)
					)
				)
			)
			(pin input line
				(at -12.7 -10.16 0)
				(length 2.54)
				(name "~{ENBL}"
					(effects
						(font
							(size 1.27 1.27)
						)
					)
				)
				(number "7"
					(effects
						(font
							(size 1.27 1.27)
						)
					)
				)
			)
			(pin passive line
				(at 0 -15.24 90)
				(length 2.54) hide
				(name "GND"
					(effects
						(font
							(size 1.27 1.27)
						)
					)
				)
				(number "8"
					(effects
						(font
							(size 1.27 1.27)
						)
					)
				)
			)
			(pin input line
				(at -12.7 5.08 0)
				(length 2.54)
				(name "LOIP"
					(effects
						(font
							(size 1.27 1.27)
						)
					)
				)
				(number "9"
					(effects
						(font
							(size 1.27 1.27)
						)
					)
				)
			)
		)
	)
	(symbol "HMC213A"
		(exclude_from_sim no)
		(in_bom yes)
		(on_board yes)
		(property "Reference" "U"
			(at -6.35 8.89 0)
			(effects
				(font
					(size 1.27 1.27)
				)
			)
		)
		(property "Value" "HMC213A"
			(at 5.08 8.89 0)
			(effects
				(font
					(size 1.27 1.27)
				)
			)
		)
		(property "Footprint" "Package_SO:MSOP-8_3x3mm_P0.65mm"
			(at 0 11.43 0)
			(effects
				(font
					(size 1.27 1.27)
				)
				(hide yes)
			)
		)
		(property "Datasheet" "https://www.analog.com/media/en/technical-documentation/data-sheets/hmc213a.pdf"
			(at 0 3.81 0)
			(effects
				(font
					(size 1.27 1.27)
				)
				(hide yes)
			)
		)
		(property "Description" "1.5-4.5GHz double-balanced mixer, MS8"
			(at 0 0 0)
			(effects
				(font
					(size 1.27 1.27)
				)
				(hide yes)
			)
		)
		(property "ki_keywords" "mixer active"
			(at 0 0 0)
			(effects
				(font
					(size 1.27 1.27)
				)
				(hide yes)
			)
		)
		(property "ki_fp_filters" "MSOP*3x3mm*P0.65mm*"
			(at 0 0 0)
			(effects
				(font
					(size 1.27 1.27)
				)
				(hide yes)
			)
		)
		(symbol "HMC213A_0_1"
			(rectangle
				(start -7.62 7.62)
				(end 7.62 -5.08)
				(stroke
					(width 0.254)
					(type default)
				)
				(fill
					(type background)
				)
			)
			(polyline
				(pts
					(xy -1.016 1.778) (xy 1.016 3.302)
				)
				(stroke
					(width 0.254)
					(type default)
				)
				(fill
					(type none)
				)
			)
			(polyline
				(pts
					(xy -1.016 3.302) (xy 1.016 1.778)
				)
				(stroke
					(width 0.254)
					(type default)
				)
				(fill
					(type none)
				)
			)
			(polyline
				(pts
					(xy 1.27 2.54) (xy 3.81 2.54)
				)
				(stroke
					(width 0.254)
					(type default)
				)
				(fill
					(type none)
				)
			)
			(polyline
				(pts
					(xy 0 1.27) (xy 0 0) (xy -4.064 0)
				)
				(stroke
					(width 0.254)
					(type default)
				)
				(fill
					(type none)
				)
			)
			(polyline
				(pts
					(xy 0 3.81) (xy 0 5.08) (xy -4.064 5.08)
				)
				(stroke
					(width 0.254)
					(type default)
				)
				(fill
					(type none)
				)
			)
			(circle
				(center 0 2.54)
				(radius 1.27)
				(stroke
					(width 0.254)
					(type default)
				)
				(fill
					(type none)
				)
			)
		)
		(symbol "HMC213A_1_1"
			(pin power_in line
				(at 0 -7.62 90)
				(length 2.54)
				(name "GND"
					(effects
						(font
							(size 1.27 1.27)
						)
					)
				)
				(number "1"
					(effects
						(font
							(size 1.27 1.27)
						)
					)
				)
			)
			(pin passive line
				(at -10.16 5.08 0)
				(length 2.54)
				(name "LO"
					(effects
						(font
							(size 1.27 1.27)
						)
					)
				)
				(number "2"
					(effects
						(font
							(size 1.27 1.27)
						)
					)
				)
			)
			(pin passive line
				(at 0 -7.62 90)
				(length 2.54) hide
				(name "GND"
					(effects
						(font
							(size 1.27 1.27)
						)
					)
				)
				(number "3"
					(effects
						(font
							(size 1.27 1.27)
						)
					)
				)
			)
			(pin no_connect line
				(at 5.08 -5.08 90)
				(length 2.54) hide
				(name "NC"
					(effects
						(font
							(size 1.27 1.27)
						)
					)
				)
				(number "4"
					(effects
						(font
							(size 1.27 1.27)
						)
					)
				)
			)
			(pin passive line
				(at -10.16 0 0)
				(length 2.54)
				(name "IF"
					(effects
						(font
							(size 1.27 1.27)
						)
					)
				)
				(number "5"
					(effects
						(font
							(size 1.27 1.27)
						)
					)
				)
			)
			(pin passive line
				(at 0 -7.62 90)
				(length 2.54) hide
				(name "GND"
					(effects
						(font
							(size 1.27 1.27)
						)
					)
				)
				(number "6"
					(effects
						(font
							(size 1.27 1.27)
						)
					)
				)
			)
			(pin passive line
				(at 10.16 2.54 180)
				(length 2.54)
				(name "RF"
					(effects
						(font
							(size 1.27 1.27)
						)
					)
				)
				(number "7"
					(effects
						(font
							(size 1.27 1.27)
						)
					)
				)
			)
			(pin passive line
				(at 0 -7.62 90)
				(length 2.54) hide
				(name "GND"
					(effects
						(font
							(size 1.27 1.27)
						)
					)
				)
				(number "8"
					(effects
						(font
							(size 1.27 1.27)
						)
					)
				)
			)
		)
	)
	(symbol "LT5560"
		(exclude_from_sim no)
		(in_bom yes)
		(on_board yes)
		(property "Reference" "U"
			(at -3.81 13.97 0)
			(effects
				(font
					(size 1.27 1.27)
				)
			)
		)
		(property "Value" "LT5560"
			(at -6.35 11.43 0)
			(effects
				(font
					(size 1.27 1.27)
				)
			)
		)
		(property "Footprint" "Package_DFN_QFN:DFN-8-1EP_3x3mm_P0.5mm_EP1.66x2.38mm"
			(at 0 0 0)
			(effects
				(font
					(size 1.27 1.27)
				)
				(hide yes)
			)
		)
		(property "Datasheet" "https://www.analog.com/media/en/technical-documentation/data-sheets/5560f.pdf"
			(at 1.27 -19.05 0)
			(effects
				(font
					(size 1.27 1.27)
				)
				(hide yes)
			)
		)
		(property "Description" "0.01MHz to 4GHz Low Power Active Mixer, DFN-8"
			(at 0 0 0)
			(effects
				(font
					(size 1.27 1.27)
				)
				(hide yes)
			)
		)
		(property "ki_keywords" "rf mixer"
			(at 0 0 0)
			(effects
				(font
					(size 1.27 1.27)
				)
				(hide yes)
			)
		)
		(property "ki_fp_filters" "DFN*3x3mm*P0.5mm*"
			(at 0 0 0)
			(effects
				(font
					(size 1.27 1.27)
				)
				(hide yes)
			)
		)
		(symbol "LT5560_0_1"
			(rectangle
				(start -7.62 10.16)
				(end 7.62 -10.16)
				(stroke
					(width 0.254)
					(type default)
				)
				(fill
					(type background)
				)
			)
		)
		(symbol "LT5560_1_1"
			(pin input line
				(at -10.16 -7.62 0)
				(length 2.54)
				(name "LO-"
					(effects
						(font
							(size 1.27 1.27)
						)
					)
				)
				(number "1"
					(effects
						(font
							(size 1.27 1.27)
						)
					)
				)
			)
			(pin input line
				(at -10.16 7.62 0)
				(length 2.54)
				(name "EN"
					(effects
						(font
							(size 1.27 1.27)
						)
					)
				)
				(number "2"
					(effects
						(font
							(size 1.27 1.27)
						)
					)
				)
			)
			(pin input line
				(at -10.16 2.54 0)
				(length 2.54)
				(name "IN+"
					(effects
						(font
							(size 1.27 1.27)
						)
					)
				)
				(number "3"
					(effects
						(font
							(size 1.27 1.27)
						)
					)
				)
			)
			(pin input line
				(at -10.16 0 0)
				(length 2.54)
				(name "IN-"
					(effects
						(font
							(size 1.27 1.27)
						)
					)
				)
				(number "4"
					(effects
						(font
							(size 1.27 1.27)
						)
					)
				)
			)
			(pin output line
				(at 10.16 -2.54 180)
				(length 2.54)
				(name "OUT-"
					(effects
						(font
							(size 1.27 1.27)
						)
					)
				)
				(number "5"
					(effects
						(font
							(size 1.27 1.27)
						)
					)
				)
			)
			(pin output line
				(at 10.16 0 180)
				(length 2.54)
				(name "OUT+"
					(effects
						(font
							(size 1.27 1.27)
						)
					)
				)
				(number "6"
					(effects
						(font
							(size 1.27 1.27)
						)
					)
				)
			)
			(pin power_in line
				(at 0 12.7 270)
				(length 2.54)
				(name "VCC"
					(effects
						(font
							(size 1.27 1.27)
						)
					)
				)
				(number "7"
					(effects
						(font
							(size 1.27 1.27)
						)
					)
				)
			)
			(pin input line
				(at -10.16 -5.08 0)
				(length 2.54)
				(name "LO+"
					(effects
						(font
							(size 1.27 1.27)
						)
					)
				)
				(number "8"
					(effects
						(font
							(size 1.27 1.27)
						)
					)
				)
			)
			(pin power_in line
				(at 0 -12.7 90)
				(length 2.54)
				(name "PGND"
					(effects
						(font
							(size 1.27 1.27)
						)
					)
				)
				(number "9"
					(effects
						(font
							(size 1.27 1.27)
						)
					)
				)
			)
		)
	)
	(symbol "ADEX-10"
		(extends "ADE-6")
		(property "Reference" "U"
			(at -6.35 7.62 0)
			(effects
				(font
					(size 1.27 1.27)
				)
			)
		)
		(property "Value" "ADEX-10"
			(at 6.35 7.62 0)
			(effects
				(font
					(size 1.27 1.27)
				)
			)
		)
		(property "Footprint" "RF_Mini-Circuits:Mini-Circuits_CD542_LandPatternPL-052"
			(at 1.905 -9.525 0)
			(effects
				(font
					(size 1.27 1.27)
				)
				(hide yes)
			)
		)
		(property "Datasheet" "https://www.minicircuits.com/pdfs/ADEX-10.pdf"
			(at 4.445 -6.985 0)
			(effects
				(font
					(size 1.27 1.27)
				)
				(hide yes)
			)
		)
		(property "Description" "Mixer, +7 dBm LO, 10 to 1000 MHz, CD542"
			(at 0 0 0)
			(effects
				(font
					(size 1.27 1.27)
				)
				(hide yes)
			)
		)
		(property "ki_keywords" "mixer rf"
			(at 0 0 0)
			(effects
				(font
					(size 1.27 1.27)
				)
				(hide yes)
			)
		)
		(property "ki_fp_filters" "Mini?Circuits*CD542*"
			(at 0 0 0)
			(effects
				(font
					(size 1.27 1.27)
				)
				(hide yes)
			)
		)
	)
	(symbol "HMC213B"
		(extends "HMC213A")
		(property "Reference" "U"
			(at -6.35 8.89 0)
			(effects
				(font
					(size 1.27 1.27)
				)
			)
		)
		(property "Value" "HMC213B"
			(at 5.08 8.89 0)
			(effects
				(font
					(size 1.27 1.27)
				)
			)
		)
		(property "Footprint" "Package_SO:MSOP-8_3x3mm_P0.65mm"
			(at 0 11.43 0)
			(effects
				(font
					(size 1.27 1.27)
				)
				(hide yes)
			)
		)
		(property "Datasheet" "https://www.analog.com/media/en/technical-documentation/data-sheets/hmc213B.pdf"
			(at 0 3.81 0)
			(effects
				(font
					(size 1.27 1.27)
				)
				(hide yes)
			)
		)
		(property "Description" "1.5-4.5GHz double-balanced mixer, MS8"
			(at 0 0 0)
			(effects
				(font
					(size 1.27 1.27)
				)
				(hide yes)
			)
		)
		(property "ki_keywords" "mixer active"
			(at 0 0 0)
			(effects
				(font
					(size 1.27 1.27)
				)
				(hide yes)
			)
		)
		(property "ki_fp_filters" "MSOP*3x3mm*P0.65mm*"
			(at 0 0 0)
			(effects
				(font
					(size 1.27 1.27)
				)
				(hide yes)
			)
		)
	)
)